    ,-""""-.         OS: \0BLUE\0 AbleOS \0RESET\0 
  ,'\  _   _`.       Host: ???
 /   \)_)-)_)-\      Kernel: AKern-{}-v{}
:              :     Uptime: {}
\              /     Packages: None
 \            /      Shell: BuiltinShell
  `.        ,'       Resolution: 640x480
    `.    ,'         Terminal: VGABuffer
      `.,'           CPU: {}
       /\`.   ,-._   GPU: VGA Compatible 
           `-'       Memory: {}/{}